Call,Name
WW7D,DARRYL
KR7RK,KEITH
K6QCB,Jeffrey
K6LDQ,Jon
KM6WCC,JuanCarlos
N6DNM,DIMA
N7CNH,DOUGLAS
NS7P,PHILLIP
WB6POT,PETER
WD8KDB,Steve
KJ7HPP,Kelley
KI7VWP,Tony
KG7YKV,Thomas
KF7WI,DWIGHT
KF6HI,BRIAN
KE6MAK,Howard
KE0VPA,John
KD7MRJ,Adam
K6YK,John
K6TUY,Robert
K6TAA,Thomas
K6KMH,Kevin
K6HPX,KENNETH
K6EXE,GEORGE
K6CWC,Greg
N1CLC,Christian
KF7HP,Lewis
K7ZZQ,Johnny
K6ARK,Adam
AG6WR,Brian
